G Exercises | Introduction to Bayesian Data Analysis for Cognitive Science
…
The data set is from a study (Beall and Tracy 2013) that contains information about the color of the clothing worn (red, pink, or red or pink) when the subject (female) is at risk of becoming pregnant (is ovulating, self-reported). The broader issue being investigated is whether women wear red more often when they are ovulating (in order to attract a mate). Using logistic regressions, fit three different models to investigate whether being ovulating increases the probability of wearing (a) red, (b) pink, or (c) either pink or red. Use priors that are reasonable (in your opinion).

G.5 Bayesian hierarchical models

G.5.1 A hierarchical model (normal likelihood) of cognitive load on pupil size.

As in section 4.1, we focus on the effect of cognitive load on pupil size, but this time we look at all the subjects of Wahn et al. (2016):

data("df_pupil_complete")
df_pupil_complete

## # A tibble: 2,228 × 4
##    subj trial  load p_size
##   <int> <int> <int>  <dbl>
## 1   701     1     2  1021.
## 2   701     2     1   951.
## 3   701     3     5  1064.
## # ℹ 2,225 more rows
…
(1a) The reporter [who the photographer sent to the editor] was hoping for a good story. (ORC)

(1b) The reporter [who sent the photographer to the editor] was hoping for a good story. (SRC)

The underlying explanation has to do with memory processes: Shorter linguistic dependencies are easier to process due to either reduced interference or decay, or both. For implemented computational models that spell this point out, see Lewis and Vasishth (2005) and Engelmann, Jäger, and Vasishth (2020).

In the Grodner and Gibson data, the dependent measure is  reading time at the relative clause verb, (e.g., sent) of different sentences with either ORC or SRC. The dependent variable is in milliseconds and was measured in a self-paced reading task.  Self-paced reading is a task where subjects read a sentence or a short text word-by-word or phrase-by-phrase, pressing a button to get each word or phrase displayed; the preceding word disappears every time the button is pressed. In E.1, we provide a more detailed explanation of this experimental method.

For this experiment, we are expecting longer reading times at the relative clause verbs of ORC sentences in comparison to the relative clause verb of SRC sentences.

data("df_gg05_rc")
df_gg05_rc

## # A tibble: 672 × 7
##    subj  item condition    RT residRT qcorrect experiment
##   <int> <int> <chr>     <int>   <dbl>    <int> <chr>     
## 1     1     1 objgap      320   -21.4        0 tedrg3    
## 2     1     2 subjgap     424    74.7        1 tedrg2    
## 3     1     3 objgap      309   -40.3        0 tedrg3    
## # ℹ 669 more rows
…
First, using a log-normal likelihood, fit a hierarchical model with correlated varying intercept and slopes for subjects and items. You will need to decide on the priors for the model.

By simply looking at the posterior distribution of the slope parameter \(\beta\), what would you conclude about the theoretical claim relating to agreement attraction?

G.5.5  Attentional blink (Bernoulli likelihood)

The attentional blink (AB; first described by Raymond, Shapiro, and Arnell 1992; though it has been noticed before e.g., Broadbent and Broadbent 1987) refers to a temporary reduction in the accuracy of detecting a probe (e.g., a letter “X”) presented closely after a target that has been detected (e.g., a white letter). We will focus on the experimental condition of Experiment 2 of Raymond, Shapiro, and Arnell (1992). Subjects are presented with letters in  rapid serial visual presentation (RSVP) at the center of the screen at a constant rate and are required to identify the only white letter (target) in the stream of black letters, and then to report whether the letter X (probe) occurred in the subsequent letter stream. The AB is defined as having occurred when the target is reported correctly but the report of the probe is inaccurate at a short lag or target-probe interval.

The data set df_ab is a subset of the data of this paradigm from a replication conducted by Grassi et al. (2021). In this subset, the probe was always present and the target was correctly identified. We want to find out how the lag affects the accuracy of the identification of the probe.

data("df_ab")
df_ab

## # A tibble: 2,101 × 4
##    subj probe_correct trial   lag
##   <int>         <int> <int> <int>
## 1     1             0     2     5
## 2     1             1     4     4
## 3     1             1     8     6
## # ℹ 2,098 more rows
…
G.8.5 Examining the position of the queued word on recall.

Refit the model presented in section 8.4.3 and examine whether set size, trial effects, the position of the queued word (tested in the data set), and their interaction affect free recall. (Tip: You can do this exercise without changing the Stan code.).

How does the accuracy change from position one to position two?

G.8.6 The conjunction fallacy.

Paolacci, Chandler, and Ipeirotis (2010) examined whether the results of some classic experiments differ between a university pool population and subjects recruited from Mechanical Turk. We’ll examine whether the results of the conjunction fallacy experiment (or Linda problem: Tversky and Kahneman 1983) are replicated for both groups.

data("df_fallacy")
df_fallacy

## # A tibble: 268 × 2
##   source answer
##   <chr>   <int>
## 1 mturk       1
## 2 mturk       1
## 3 mturk       1
## # ℹ 265 more rows
…
G.13 Bayes factors

G.13.1 Is there evidence for differences in the effect of cloze probability among the subjects?

Use Bayes factor to compare the log cloze probability model that we examined in section 13.2.2 with a similar model but that incorporates the strong assumption of no difference between subjects for the effect of cloze (\(\tau_{u_2}=0\)).

G.13.2 Is there evidence for the claim that English subject relative clauses are easier to process than object relative clauses?

Consider again the reading time data coming from Experiment 1 of Grodner and Gibson (2005) presented in exercise G.5.2:

data("df_gg05_rc")
df_gg05_rc

## # A tibble: 672 × 7
##    subj  item condition    RT residRT qcorrect experiment
##   <int> <int> <chr>     <int>   <dbl>    <int> <chr>     
## 1     1     1 objgap      320   -21.4        0 tedrg3    
## 2     1     2 subjgap     424    74.7        1 tedrg2    
## 3     1     3 objgap      309   -40.3        0 tedrg3    
## # ℹ 669 more rows
…
